<svg width="101" height="42" viewBox="0 0 101 42" fill="none" xmlns="http://www.w3.org/2000/svg">
<path fill-rule="evenodd" clip-rule="evenodd" d="M47.6177 8.45141H44.4345C43.7882 8.45141 43.252 7.92401 43.252 7.27332C43.252 6.62948 43.7882 6.09523 44.4345 6.09523H48.6765L48.7384 6.10208L48.8003 6.09523C49.4534 6.09523 49.9828 6.62948 49.9828 7.27332V24.0611C49.9828 26.6776 49.2747 29.0132 47.8377 31.0475C51.0141 28.8899 53.4067 25.6228 53.6748 21.9241L53.6885 2.40342H37.4355C36.7824 2.40342 36.253 1.87602 36.253 1.23217C36.253 0.581484 36.7824 0.054083 37.4355 0.054083H54.8711C55.5242 0.054083 56.0536 0.581484 56.0536 1.23217V21.1159C56.0605 21.1638 56.0605 21.2049 56.0605 21.2529C56.0605 21.383 56.0605 21.5132 56.0536 21.6364V26.2598C56.1155 27.4516 56.1292 29.1639 55.7236 30.9105C55.3248 32.6845 54.5411 34.5201 53.3379 36.2051C51.2341 39.1366 47.9134 41.1229 44.5239 41.5476C43.2245 41.712 41.7669 41.6503 40.1237 41.6503H33.2554V41.664H32.0729C31.4266 41.664 30.8903 41.1298 30.8903 40.4859V35.0338C30.8903 34.4037 31.3922 33.8831 32.0179 33.8557H38.1024C40.7013 33.8557 42.8876 32.9174 44.7233 31.0886C46.6827 29.1365 47.6177 26.8146 47.6177 24.0611V8.45141ZM33.2554 39.2941H40.1237C43.857 39.2941 47.4802 38.8695 50.2028 36.027C53.1179 32.9859 53.4273 30.3557 53.6473 28.6091C50.5466 33.0886 44.9295 36.0886 39.6081 36.116C39.12 36.1777 38.6112 36.2119 38.1024 36.2119H33.2554V39.2941Z" fill="#1AD670"/>
<path fill-rule="evenodd" clip-rule="evenodd" d="M0.00687521 17.9111C0.15813 12.7878 3.47198 8.27404 8.38089 6.67813C9.5978 6.28772 10.8697 6.08909 12.1485 6.08909C12.6916 6.08909 13.2348 6.12333 13.7711 6.19183C14.2386 6.12333 14.7061 6.08909 15.1736 6.08909C20.1925 6.08909 24.2626 10.1371 24.2626 15.1371C24.2626 16.6782 23.8707 18.1851 23.1213 19.5344C22.8051 20.096 22.0832 20.3015 21.5125 19.9865C20.9419 19.6714 20.7356 18.9522 21.0519 18.3837C21.6088 17.3905 21.8976 16.2809 21.8976 15.1371C21.8976 11.4384 18.8862 8.44527 15.1736 8.44527C14.7886 8.44527 14.4104 8.47267 14.0254 8.54116H14.0186L13.9842 8.54801H13.9704L13.9636 8.55486L13.9223 8.56171C12.2104 8.87678 10.691 9.85624 9.68718 11.2741C9.10966 12.0891 8.71777 13.0206 8.55276 13.9864L8.54589 14.0481C8.54589 14.0481 8.54589 14.0481 8.54589 14.0549C8.48401 14.4111 8.45651 14.7741 8.45651 15.1371C8.45651 15.2056 8.44964 15.2741 8.43589 15.3426C8.43589 15.5481 8.43589 15.7535 8.43589 15.9522V40.5072C8.42214 41.1441 7.89962 41.6647 7.25335 41.6647H1.09316L1.06566 41.6579H1.03128L1.00378 41.651H0.97628L0.941904 41.6442L0.859402 41.6236L0.831901 41.6099L0.776899 41.5962L0.749398 41.5825L0.694397 41.562L0.673771 41.5483L0.618769 41.5209L0.598144 41.5072L0.543142 41.4798L0.522516 41.4661L0.501891 41.4455L0.433138 41.3976L0.412513 41.377L0.385012 41.3565L0.309385 41.2811L0.268133 41.2332L0.220007 41.1716L0.199381 41.1441L0.185631 41.1236L0.17188 41.0962L0.15813 41.0757L0.130629 41.0209L0.116879 41.0003L0.103128 40.9729L0.0825026 40.9181L0.0687521 40.8907L0.0481265 40.8085L0.0343761 40.7811L0.0275009 40.7537V40.7263L0.0206256 40.6989L0.0137504 40.6647L0.00687521 40.6373V40.5757L0 40.5483V18.0344C0 17.9933 0 17.9522 0.00687521 17.9111ZM6.07081 39.3085V15.9522C6.07081 15.1782 6.07769 14.4042 6.21519 13.6371L6.22207 13.6165C6.44895 12.2809 6.97147 11.0138 7.75524 9.91104C7.92712 9.67816 8.10588 9.44528 8.29151 9.2261C4.73702 10.7467 2.4132 14.2535 2.36507 18.1577V18.2536C2.36507 18.2604 2.36507 18.2673 2.36507 18.2741V39.3085H6.07081ZM6.4352 2.79454C9.02028 0.97261 12.0935 0 15.2561 0C23.6507 0 30.4572 6.78087 30.4572 15.1371C30.4572 23.5002 23.6507 30.2742 15.2561 30.2742C14.6098 30.2742 14.0736 29.7468 14.0736 29.0961C14.0736 28.4523 14.6098 27.918 15.2561 27.918C22.3444 27.918 28.0921 22.1988 28.0921 15.1371C28.0921 8.07541 22.3444 2.35618 15.2561 2.35618C12.5816 2.35618 9.98969 3.17811 7.80337 4.71921C7.27398 5.09593 6.53145 4.96579 6.15332 4.43839C5.77518 3.91099 5.90581 3.17126 6.4352 2.79454Z" fill="#1AD670"/>
<path fill-rule="evenodd" clip-rule="evenodd" d="M67.8377 20.8008L63.2726 35.39C63.0801 36.0064 62.4201 36.3557 61.7944 36.164C61.1756 35.9722 60.825 35.3078 61.0175 34.6913L66.0914 18.4789C66.1052 18.4241 66.1258 18.3693 66.1464 18.3214L69.0203 9.0884C69.9209 6.19112 70.4503 4.34179 73.1591 2.24588C75.0361 0.793815 77.188 0.054083 79.5668 0.054083C81.9663 0.054083 84.1457 0.773267 86.0295 2.25273C87.7758 3.6226 88.9721 5.41029 89.639 7.52674L99.9175 40.1229C100.144 40.8489 99.9312 41.6503 99.0168 41.6503H92.8429C92.7879 41.6503 92.7329 41.6503 92.6779 41.6434C92.1278 41.7119 91.5916 41.39 91.4128 40.8558L81.5606 10.3076C81.3888 9.73909 81.1069 9.19114 80.6256 8.82812C80.3094 8.58155 79.9656 8.46511 79.5668 8.46511C79.45 8.46511 79.3331 8.47881 79.2162 8.5062C79.2162 8.5062 79.2093 8.5062 79.2025 8.5062H79.1956L79.175 8.51305C78.9481 8.5747 78.7418 8.68429 78.5562 8.82812C78.068 9.19799 77.7587 9.71854 77.573 10.3007L71.681 29.2666C71.4885 29.8831 70.8216 30.2324 70.2028 30.0406C69.5772 29.8488 69.2265 29.1913 69.419 28.568L75.153 10.1227C71.461 12.3145 69.2265 16.0337 67.9615 20.5131C67.934 20.6159 67.8927 20.7118 67.8377 20.8008ZM97.1742 39.301L87.3839 8.23223C86.8614 6.57468 85.9402 5.17741 84.5651 4.10206C83.1007 2.95137 81.4369 2.40342 79.5668 2.40342C77.7174 2.40342 76.0742 2.97191 74.6098 4.10891C73.221 5.17741 72.2929 6.56098 71.7703 8.23223C71.7566 8.28018 71.7428 8.32127 71.7222 8.36237L71.1447 10.2117C73.1248 8.34182 75.5792 6.95825 78.5974 6.23221L78.6456 6.21851C78.6593 6.21167 78.6799 6.21167 78.6937 6.20482C78.9824 6.14317 79.2781 6.10892 79.5668 6.10892C80.4881 6.10892 81.3338 6.3966 82.0694 6.95825C82.9426 7.62949 83.4995 8.56785 83.8226 9.60895C87.4321 21.246 89.7972 27.8077 93.3998 39.301H97.1742Z" fill="#1AD670"/>
<path fill-rule="evenodd" clip-rule="evenodd" d="M96.3286 2.49931C97.7999 2.49931 98.9893 3.68425 98.9893 5.15686C98.9893 6.62263 97.7999 7.80757 96.3286 7.80757C94.8504 7.80757 93.661 6.62263 93.661 5.15686C93.661 3.68425 94.8504 2.49931 96.3286 2.49931ZM95.2767 6.3829V3.92398H96.3217C96.5899 3.92398 96.7824 3.94453 96.8993 3.99247C97.0161 4.03357 97.1124 4.11576 97.188 4.22535C97.2568 4.34179 97.298 4.46508 97.298 4.61576C97.298 4.8007 97.243 4.95138 97.133 5.06782C97.023 5.19111 96.8649 5.26645 96.6449 5.3007C96.7549 5.36235 96.8443 5.43084 96.913 5.50618C96.9818 5.58152 97.078 5.71166 97.1949 5.90345L97.4974 6.3829H96.8993L96.5417 5.84865C96.4111 5.65687 96.3286 5.53358 96.2805 5.48563C96.2324 5.43769 96.1842 5.40344 96.1292 5.38289C96.0742 5.36235 95.9917 5.3555 95.8749 5.3555H95.7717V6.3829H95.2767ZM95.7717 4.96508H96.143C96.3836 4.96508 96.528 4.95138 96.5899 4.93083C96.6518 4.91714 96.6999 4.87604 96.7274 4.82809C96.7618 4.78015 96.7824 4.7185 96.7824 4.64316C96.7824 4.56097 96.7618 4.49248 96.7136 4.44453C96.6724 4.39658 96.6105 4.36234 96.528 4.34864C96.4867 4.34179 96.363 4.34179 96.1636 4.34179H95.7717V4.96508ZM96.3286 3.02671C97.5043 3.02671 98.4599 3.97877 98.4599 5.15686C98.4599 6.32811 97.5043 7.28017 96.3286 7.28017C95.1461 7.28017 94.1904 6.32811 94.1904 5.15686C94.1904 3.97877 95.1461 3.02671 96.3286 3.02671Z" fill="#1AD670"/>
</svg>
