<?xml version="1.0" encoding="UTF-8"?>
<!DOCTYPE svg PUBLIC "-//W3C//DTD SVG 1.1//EN" "http://www.w3.org/Graphics/SVG/1.1/DTD/svg11.dtd">
<!-- Creator: CorelDRAW 2019 (64 Bit) -->
<svg xmlns="http://www.w3.org/2000/svg" xml:space="preserve" width="171.128mm" height="31.565mm" version="1.1" style="shape-rendering:geometricPrecision; text-rendering:geometricPrecision; image-rendering:optimizeQuality; fill-rule:evenodd; clip-rule:evenodd"
viewBox="0 0 18788.44 3465.57"
 xmlns:xlink="http://www.w3.org/1999/xlink">
 <defs>
  <style type="text/css">
   <![CDATA[
    .fil0 {fill:white;fill-rule:nonzero}
   ]]>
  </style>
 </defs>
 <g id="Camada_x0020_1">
  <metadata id="CorelCorpID_0Corel-Layer"/>
  <g id="_1863475861584">
   <path class="fil0" d="M2492.66 1493.99l-134.92 474.32 575.29 0 -47.66 563.16 -693.25 0 -262.63 930 -639.12 0 267.45 -930 -397.54 0 -267.45 930 -639.9 0 265.82 -930 -518.74 0 50.12 -563.16 629.41 0 134.92 -474.32 -556.7 0 47.66 -572.87 674.7 0 262.59 -921.12 639.12 0 -262.59 921.12 397.51 0 262.62 -921.12 639.12 0 -260.16 921.12 523.57 0 -50.12 572.87 -639.12 0zm-1174 474.32l397.54 0 137.33 -474.32 -397.5 0 -137.37 474.32z"/>
   <path class="fil0" d="M4101.26 1574.75l-435.22 -1140.67 410.82 0 193.55 674.49c0.69,3.1 2.06,8.95 4.13,16.85 2.06,8.25 4.13,17.87 6.18,28.88 1.72,11 3.79,22.69 5.5,35.07 1.72,12.71 2.42,24.07 2.42,34.72l7.21 0c0,-34.72 5.85,-72.53 17.87,-113.45l202.84 -676.56 409.79 0 -435.22 1140.67 -389.86 0zm1511.62 20.63c-190.12,0 -337.6,-50.54 -442.79,-151.61 -104.86,-101.07 -157.45,-245.12 -157.45,-431.79 0,-192.87 48.47,-340.69 146.1,-443.83 97.3,-103.13 236.18,-154.7 416.67,-154.7 171.89,0 304.59,44.7 398.44,134.42 93.51,89.73 140.26,218.99 140.26,387.44l0 175.33 -703.72 0c2.76,63.6 26.13,113.8 70.13,149.9 43.65,36.09 103.82,54.31 179.45,54.31 69.1,0 132.69,-6.53 190.8,-19.6 58.1,-13.07 121.01,-35.41 188.74,-67.04l0 283.62c-61.54,31.28 -125.48,53.28 -191.15,65.32 -65.67,12.03 -144.39,18.23 -235.49,18.23zm-23.37 -913.77c-46.07,0 -84.91,14.78 -116.2,44 -31.28,29.22 -49.51,74.94 -54.65,137.5l337.94 0c-1.38,-55.01 -16.85,-99 -46.76,-132 -29.91,-33 -69.78,-49.51 -120.32,-49.51zm1467.95 893.14l0 -622.24c0,-75.98 -11,-133.05 -32.66,-171.89 -22,-38.5 -57.06,-57.76 -105.54,-57.76 -66.35,0 -114.48,26.47 -144.04,79.41 -29.57,53.29 -44.36,144.05 -44.36,272.96l0 499.52 -393.62 0 0 -1140.67 297.03 0 49.15 140.6 23.37 0c33.35,-53.97 80.1,-94.19 139.58,-121.01 59.13,-26.81 127.54,-40.22 204.89,-40.22 126.17,0 224.49,36.44 294.63,109.67 70.13,73.22 105.2,176.36 105.2,309.4l0 742.22 -393.64 0zm1016.23 20.63c-81.48,0 -152.3,-23.03 -213.15,-69.44 -60.85,-46.42 -107.61,-114.48 -140.95,-204.55 -33.34,-90.07 -49.85,-195.28 -49.85,-315.6 0,-185.3 37.12,-330.37 111.72,-435.22 74.6,-104.86 177.05,-157.11 307,-157.11 63.94,0 119.98,12.71 167.77,38.16 48.12,25.78 91.79,68.75 131.32,129.26l8.25 0c-12.71,-89.38 -19.25,-178.76 -19.25,-268.15l0 -305.62 397.07 0 0 1567.65 -297.38 0 -84.56 -143.71 -15.13 0c-67.73,109.67 -168.79,164.34 -302.87,164.34zm160.89 -311.47c63.25,0 107.61,-19.94 133.39,-59.47 25.78,-39.54 39.88,-100.73 41.94,-183.24l0 -31.28c0,-100.73 -14.44,-172.24 -43.31,-214.86 -28.88,-42.63 -74.26,-63.94 -135.8,-63.94 -51.91,0 -91.79,24.41 -120.32,72.88 -28.53,48.81 -42.97,118.26 -42.97,207.99 0,88.69 14.44,156.08 43.31,202.49 28.89,46.41 70.13,69.44 123.77,69.44zm1361.72 311.47c-190.12,0 -337.6,-50.54 -442.79,-151.61 -104.86,-101.07 -157.45,-245.12 -157.45,-431.79 0,-192.87 48.47,-340.69 146.1,-443.83 97.3,-103.13 236.18,-154.7 416.67,-154.7 171.89,0 304.59,44.7 398.44,134.42 93.51,89.73 140.26,218.99 140.26,387.44l0 175.33 -703.72 0c2.76,63.6 26.13,113.8 70.13,149.9 43.65,36.09 103.82,54.31 179.45,54.31 69.1,0 132.69,-6.53 190.8,-19.6 58.1,-13.07 121.01,-35.41 188.74,-67.04l0 283.62c-61.54,31.28 -125.48,53.28 -191.15,65.32 -65.67,12.03 -144.39,18.23 -235.49,18.23zm-23.37 -913.77c-46.07,0 -84.91,14.78 -116.2,44 -31.28,29.22 -49.51,74.94 -54.65,137.5l337.94 0c-1.38,-55.01 -16.85,-99 -46.76,-132 -29.91,-33 -69.78,-49.51 -120.32,-49.51zm1168.51 356.84l0 536.3 -397.75 0 0 -1472.77 482.67 0c400.17,0 600.24,145.08 600.24,434.88 0,170.52 -83.19,302.53 -249.58,395.7l429.03 642.18 -451.03 0 -312.5 -536.3 -101.07 0zm0 -299.09l74.6 0c139.23,0 209.02,-61.54 209.02,-184.26 0,-101.43 -68.42,-151.95 -204.89,-151.95l-78.73 0 0 336.21zm1526.05 856.02c-190.12,0 -337.6,-50.54 -442.79,-151.61 -104.86,-101.07 -157.45,-245.12 -157.45,-431.79 0,-192.87 48.47,-340.69 146.1,-443.83 97.3,-103.13 236.18,-154.7 416.67,-154.7 171.89,0 304.59,44.7 398.44,134.42 93.51,89.73 140.26,218.99 140.26,387.44l0 175.33 -703.72 0c2.76,63.6 26.13,113.8 70.13,149.9 43.65,36.09 103.82,54.31 179.45,54.31 69.1,0 132.69,-6.53 190.8,-19.6 58.1,-13.07 121.01,-35.41 188.74,-67.04l0 283.62c-61.54,31.28 -125.48,53.28 -191.15,65.32 -65.67,12.03 -144.39,18.23 -235.49,18.23zm-23.37 -913.77c-46.07,0 -84.91,14.78 -116.2,44 -31.28,29.22 -49.51,74.94 -54.65,137.5l337.94 0c-1.38,-55.01 -16.85,-99 -46.76,-132 -29.91,-33 -69.78,-49.51 -120.32,-49.51zm1267.18 913.77c-186.68,0 -327.97,-50.54 -424.58,-151.27 -96.27,-100.72 -144.39,-245.46 -144.39,-434.19 0,-189.42 51.91,-336.23 156.08,-440.39 104.16,-104.17 251.98,-156.08 444.16,-156.08 132.35,0 256.8,28.88 373.7,86.64l-115.86 291.18c-47.78,-20.63 -91.79,-37.47 -132.01,-49.85 -40.22,-12.37 -82.16,-18.57 -125.82,-18.57 -63.94,0 -113.11,24.76 -148.17,74.6 -34.72,49.51 -52.25,119.64 -52.25,210.39 0,182.55 67.38,274 202.49,274 115.51,0 226.2,-33.7 332.1,-100.73l0 313.53c-101.43,67.04 -223.12,100.73 -365.44,100.73zm1143.07 0c-190.12,0 -337.6,-50.54 -442.79,-151.61 -104.86,-101.07 -157.45,-245.12 -157.45,-431.79 0,-192.87 48.47,-340.69 146.1,-443.83 97.3,-103.13 236.18,-154.7 416.67,-154.7 171.89,0 304.59,44.7 398.44,134.42 93.51,89.73 140.26,218.99 140.26,387.44l0 175.33 -703.72 0c2.76,63.6 26.13,113.8 70.13,149.9 43.65,36.09 103.82,54.31 179.45,54.31 69.1,0 132.69,-6.53 190.8,-19.6 58.1,-13.07 121.01,-35.41 188.74,-67.04l0 283.62c-61.54,31.28 -125.48,53.28 -191.15,65.32 -65.67,12.03 -144.39,18.23 -235.49,18.23zm-23.37 -913.77c-46.07,0 -84.91,14.78 -116.2,44 -31.28,29.22 -49.51,74.94 -54.65,137.5l337.94 0c-1.38,-55.01 -16.85,-99 -46.76,-132 -29.91,-33 -69.78,-49.51 -120.32,-49.51zm1444.57 -268.15c124.11,0 222.77,51.91 295.31,156.08 72.88,104.16 109.32,248.21 109.32,432.48 0,185.3 -36.78,330.71 -110.35,435.57 -73.22,105.2 -175.67,157.8 -306.31,157.8 -42.63,0 -80.1,-4.47 -113.11,-13.76 -32.66,-8.94 -62.22,-21.65 -88.01,-37.47 -25.78,-16.15 -55.69,-43.31 -90.07,-80.78l-24.07 0 -62.56 111.38 -307.35 0 0 -1567.65 393.98 0 0 354.78c0,42.29 -4.81,115.17 -14.1,218.99l14.1 0c38.16,-59.13 82.51,-101.75 132.36,-128.23 50.19,-26.13 106.92,-39.2 170.86,-39.2zm-144.05 309.4c-55.01,0 -95.57,19.26 -121.01,57.41 -25.44,38.16 -38.16,98.33 -38.16,180.15l0 55.35c0,93.51 12.72,160.55 38.16,201.12 25.44,40.57 67.38,60.85 124.79,60.85 46.42,0 82.17,-23.71 106.92,-71.17 24.76,-47.09 37.13,-116.88 37.13,-208.67 0,-183.24 -49.15,-275.03 -147.82,-275.03zm1324.25 872.52c-190.12,0 -337.6,-50.54 -442.79,-151.61 -104.86,-101.07 -157.45,-245.12 -157.45,-431.79 0,-192.87 48.47,-340.69 146.1,-443.83 97.3,-103.13 236.18,-154.7 416.67,-154.7 171.89,0 304.59,44.7 398.44,134.42 93.51,89.73 140.26,218.99 140.26,387.44l0 175.33 -703.72 0c2.76,63.6 26.13,113.8 70.13,149.9 43.65,36.09 103.82,54.31 179.45,54.31 69.1,0 132.69,-6.53 190.8,-19.6 58.1,-13.07 121.01,-35.41 188.74,-67.04l0 283.62c-61.54,31.28 -125.48,53.28 -191.15,65.32 -65.67,12.03 -144.39,18.23 -235.49,18.23zm-23.37 -913.77c-46.07,0 -84.91,14.78 -116.2,44 -31.28,29.22 -49.51,74.94 -54.65,137.5l337.94 0c-1.38,-55.01 -16.85,-99 -46.76,-132 -29.91,-33 -69.78,-49.51 -120.32,-49.51zm1435.98 -268.15c34.38,0 67.04,2.74 97.64,7.9l22.34 4.13 -35.41 371.63c-31.97,-7.92 -76.67,-12.03 -133.74,-12.03 -85.94,0 -148.16,19.59 -187.02,58.78 -39.18,39.54 -58.44,95.91 -58.44,169.83l0 561.06 -393.98 0 0 -1140.67 293.25 0 61.54 181.86 18.91 0c33,-60.51 78.72,-109.32 137.51,-146.45 58.78,-37.47 117.92,-56.04 177.39,-56.04z"/>
   <path class="fil0" d="M4313.61 2462.29l0 514.06c0,90.47 -27.25,161.66 -81.94,213.57 -54.69,51.72 -129.76,77.68 -225.44,77.68 -95.65,0 -169.61,-26.14 -221.9,-78.24 -52.27,-52.27 -78.41,-123.83 -78.41,-215.22l0 -511.84 92.32 0 0 518.14c0,66.37 18.16,117.16 54.31,152.75 36.15,35.41 89.36,53.21 159.63,53.21 67.09,0 118.63,-17.8 154.78,-53.57 36.14,-35.61 54.31,-86.77 54.31,-153.31l0 -517.22 92.32 0zm850.73 794.18l-269.56 -704.08 -4.26 0c5.01,55.81 7.6,122.17 7.6,198.92l0 505.16 -85.26 0 0 -794.18 139.03 0 251.57 655.15 4.27 0 253.78 -655.15 137.92 0 0 794.18 -92.32 0 0 -511.66c0,-58.76 2.6,-122.54 7.61,-191.31l-4.27 0 -271.77 702.97 -74.33 0zm1871.24 0l-269.55 -704.08 -4.26 0c5.01,55.81 7.6,122.17 7.6,198.92l0 505.16 -85.28 0 0 -794.18 139.03 0 251.57 655.15 4.27 0 253.78 -655.15 137.93 0 0 794.18 -92.33 0 0 -511.66c0,-58.76 2.61,-122.54 7.62,-191.31l-4.28 0 -271.76 702.97 -74.34 0zm1631.17 -398.02c0,127.17 -32.25,227.09 -96.4,299.95 -64.32,72.86 -153.69,109.19 -268.24,109.19 -116.98,0 -207.25,-35.78 -270.66,-107.34 -63.59,-71.55 -95.47,-172.39 -95.47,-302.73 0,-129.39 31.88,-229.5 95.65,-300.69 63.78,-71.18 154.25,-106.78 271.59,-106.78 114.19,0 203.17,36.15 267.32,108.64 64.14,72.48 96.21,172.41 96.21,299.76zm-632.89 -0.19c0,107.52 22.8,189.09 68.6,244.7 45.97,55.61 112.53,83.42 199.66,83.42 88.05,0 154.6,-27.61 199.47,-83.05 44.85,-55.43 67.29,-137.18 67.29,-245.08 0,-106.78 -22.24,-187.79 -67.12,-243.05 -44.67,-55.24 -110.86,-82.85 -198.54,-82.85 -88.06,0 -154.8,27.8 -200.76,83.42 -45.79,55.61 -68.6,136.44 -68.6,242.47zm1552.02 -395.97l99.36 0 -286.05 794.18 -91.2 0 -284.56 -794.18 97.69 0 182.42 513.88c20.95,58.95 37.64,116.41 50.05,172.22 12.98,-58.77 30.03,-117.16 50.98,-175.56l181.31 -510.54zm497.74 794.18l0 -794.18 92.32 0 0 794.18 -92.32 0zm950.65 0l-269.56 -704.08 -4.26 0c5.01,55.81 7.6,122.17 7.6,198.92l0 505.16 -85.26 0 0 -794.18 139.03 0 251.57 655.15 4.27 0 253.78 -655.15 137.92 0 0 794.18 -92.32 0 0 -511.66c0,-58.76 2.6,-122.54 7.61,-191.31l-4.27 0 -271.77 702.97 -74.33 0zm1384.24 0l-442.5 0 0 -794.18 442.5 0 0 82.31 -350.19 0 0 255.83 329.06 0 0 81.19 -329.06 0 0 292.54 350.19 0 0 82.31zm1085.41 0l-105.29 0 -433.98 -666.45 -4.46 0c5.75,78.23 8.72,149.78 8.72,215.04l0 451.41 -85.28 0 0 -794.18 104.19 0 433.04 663.85 4.27 0c-0.75,-9.83 -2.23,-41.16 -4.82,-94.37 -2.6,-53.02 -3.52,-90.84 -2.78,-113.82l0 -455.67 86.38 0 0 794.18zm751.53 0l-92.32 0 0 -711.87 -251.37 0 0 -82.31 594.88 0 0 82.31 -251.19 0 0 711.87zm1349.39 -398.02c0,127.17 -32.26,227.09 -96.4,299.95 -64.33,72.86 -153.69,109.19 -268.24,109.19 -116.98,0 -207.26,-35.78 -270.66,-107.34 -63.6,-71.55 -95.47,-172.39 -95.47,-302.73 0,-129.39 31.87,-229.5 95.65,-300.69 63.78,-71.18 154.24,-106.78 271.58,-106.78 114.19,0 203.18,36.15 267.32,108.64 64.15,72.48 96.22,172.41 96.22,299.76zm-632.9 -0.19c0,107.52 22.8,189.09 68.6,244.7 45.97,55.61 112.54,83.42 199.67,83.42 88.05,0 154.6,-27.61 199.46,-83.05 44.86,-55.43 67.29,-137.18 67.29,-245.08 0,-106.78 -22.24,-187.79 -67.1,-243.05 -44.67,-55.24 -110.87,-82.85 -198.55,-82.85 -88.05,0 -154.8,27.8 -200.76,83.42 -45.79,55.61 -68.6,136.44 -68.6,242.47zm2180.1 -164.62c0,80.27 -27.44,142.18 -82.12,185.38 -54.87,43.2 -133.29,64.89 -235.44,64.89l-93.43 0 0 312.55 -92.31 0 0 -794.18 205.77 0c198.36,0 297.54,77.12 297.54,231.35zm-410.99 171.3l83.05 0c81.76,0 141.09,-13.16 177.6,-39.68 36.53,-26.32 54.88,-68.77 54.88,-126.97 0,-52.47 -17.25,-91.59 -51.55,-117.36 -34.49,-25.77 -88.05,-38.56 -160.91,-38.56l-103.07 0 0 322.57zm750.61 600.64c-34.1,0 -60.79,-4.82 -80.44,-14.65l0 -78.6c25.76,7.22 52.46,10.94 80.44,10.94 35.78,0 63.04,-10.94 81.75,-32.62 18.55,-21.69 28.01,-53.02 28.01,-94l0 -794.35 92.31 0 0 786.58c0,68.77 -17.42,122.17 -52.27,159.98 -34.67,37.82 -84.73,56.73 -149.8,56.73zm1201.11 -209.11l-98.81 -252.49 -318.49 0 -97.69 252.49 -93.43 0 314.04 -797.52 77.68 0 312.37 797.52 -95.65 0zm-127.54 -335.91l-92.51 -246.01c-11.86,-31.15 -24.29,-69.33 -36.89,-114.57 -7.97,34.67 -19.27,72.86 -34.29,114.57l-93.43 246.01 257.12 0z"/>
  </g>
 </g>
</svg>
